{
	"Version": 3,
	"Parameters": [
		{
			"Id": "ParamAngleX",
			"GroupId": "",
			"Name": "角度 X"
		},
		{
			"Id": "ParamAngleY",
			"GroupId": "",
			"Name": "角度 Y"
		},
		{
			"Id": "ParamAngleZ",
			"GroupId": "",
			"Name": "角度 Z"
		},
		{
			"Id": "ParamEyeLOpen",
			"GroupId": "",
			"Name": "左目　開閉"
		},
		{
			"Id": "ParamEyeLSmile",
			"GroupId": "",
			"Name": "左目　笑顔"
		},
		{
			"Id": "ParamEyeROpen",
			"GroupId": "",
			"Name": "右目　開閉"
		},
		{
			"Id": "ParamEyeRSmile",
			"GroupId": "",
			"Name": "右目　笑顔"
		},
		{
			"Id": "ParamEyeBallX",
			"GroupId": "",
			"Name": "目玉 X"
		},
		{
			"Id": "ParamEyeBallY",
			"GroupId": "",
			"Name": "目玉 Y"
		},
		{
			"Id": "ParamBrowLY",
			"GroupId": "",
			"Name": "左眉　上下"
		},
		{
			"Id": "ParamBrowRY",
			"GroupId": "",
			"Name": "右眉　上下"
		},
		{
			"Id": "ParamBrowLX",
			"GroupId": "",
			"Name": "左眉　左右"
		},
		{
			"Id": "ParamBrowRX",
			"GroupId": "",
			"Name": "右眉　左右"
		},
		{
			"Id": "ParamBrowLAngle",
			"GroupId": "",
			"Name": "左眉　角度"
		},
		{
			"Id": "ParamBrowRAngle",
			"GroupId": "",
			"Name": "右眉　角度"
		},
		{
			"Id": "ParamBrowLForm",
			"GroupId": "",
			"Name": "左眉　変形"
		},
		{
			"Id": "ParamBrowRForm",
			"GroupId": "",
			"Name": "右眉　変形"
		},
		{
			"Id": "ParamMouthForm",
			"GroupId": "",
			"Name": "口　変形"
		},
		{
			"Id": "ParamMouthOpenY",
			"GroupId": "",
			"Name": "口　開閉"
		},
		{
			"Id": "ParamCheek",
			"GroupId": "",
			"Name": "照れ"
		},
		{
			"Id": "ParamBodyAngleX",
			"GroupId": "",
			"Name": "体の回転　X"
		},
		{
			"Id": "ParamBodyAngleY",
			"GroupId": "",
			"Name": "体の回転　Y"
		},
		{
			"Id": "ParamBodyAngleZ",
			"GroupId": "",
			"Name": "体の回転　Z"
		},
		{
			"Id": "ParamBreath",
			"GroupId": "",
			"Name": "呼吸"
		},
		{
			"Id": "ParamHairFront",
			"GroupId": "",
			"Name": "髪揺れ　前"
		},
		{
			"Id": "ParamSukato",
			"GroupId": "",
			"Name": "スカート揺れ"
		},
		{
			"Id": "ParamHairSide",
			"GroupId": "",
			"Name": "髪揺れ　横"
		},
		{
			"Id": "ParamHairBack",
			"GroupId": "",
			"Name": "髪揺れ　後"
		},
		{
			"Id": "Paramfuku",
			"GroupId": "",
			"Name": "服揺れ"
		},
		{
			"Id": "Paramnekutai",
			"GroupId": "",
			"Name": "ネクタイ揺れ"
		},
		{
			"Id": "Paramsode",
			"GroupId": "",
			"Name": "袖揺れ"
		}
	],
	"ParameterGroups": [],
	"Parts": [
		{
			"Id": "Part",
			"Name": "前髪"
		},
		{
			"Id": "Part2",
			"Name": "横髪"
		},
		{
			"Id": "Part3",
			"Name": "まゆ"
		},
		{
			"Id": "Part4",
			"Name": "目"
		},
		{
			"Id": "Part15",
			"Name": "はな"
		},
		{
			"Id": "Part19",
			"Name": "体"
		},
		{
			"Id": "Part16",
			"Name": "顔"
		},
		{
			"Id": "Part18",
			"Name": "みみ"
		},
		{
			"Id": "Part25",
			"Name": "後ろ髪"
		},
		{
			"Id": "Part5",
			"Name": "ほね"
		},
		{
			"Id": "Part6",
			"Name": "まつげとげ"
		},
		{
			"Id": "Part7",
			"Name": "まつげ上"
		},
		{
			"Id": "Part8",
			"Name": "まつげ下"
		},
		{
			"Id": "Part9",
			"Name": "まつげ横"
		},
		{
			"Id": "Part10",
			"Name": "眼球"
		},
		{
			"Id": "Part11",
			"Name": "白目"
		},
		{
			"Id": "Part12",
			"Name": "胴:外"
		},
		{
			"Id": "Part20",
			"Name": "胴：内"
		},
		{
			"Id": "Part21",
			"Name": "腕:外"
		},
		{
			"Id": "Part22",
			"Name": "腕:内"
		},
		{
			"Id": "Part23",
			"Name": "スカート"
		},
		{
			"Id": "Part24",
			"Name": "足"
		},
		{
			"Id": "Part13",
			"Name": "口"
		},
		{
			"Id": "Part17",
			"Name": "照れ"
		},
		{
			"Id": "Part14",
			"Name": "開口"
		}
	],
	"CombinedParameters": [
		[
			"ParamAngleX",
			"ParamAngleY"
		],
		[
			"ParamEyeBallX",
			"ParamEyeBallY"
		],
		[
			"ParamMouthForm",
			"ParamMouthOpenY"
		]
	]
}